FIFO/fifo.vcd
$date
	Thu Jan  1 18:15:40 2026
$end
$version
	Icarus Verilog
$end
$timescale
	1ps
$end
$scope module tb_sync_fifo $end
$var wire 1 ! full $end
$var wire 1 " empty $end
$var wire 8 # d_out [7:0] $end
$var parameter 32 $ DATA_WIDTH $end
$var parameter 32 % DEPTH $end
$var reg 1 & clk_wr $end
$var reg 8 ' d_in [7:0] $end
$var reg 1 ( rd_en $end
$var reg 1 ) rstn $end
$var reg 1 * wr_en $end
$var integer 32 + i [31:0] $end
$scope module dut $end
$var wire 1 & clk_wr $end
$var wire 16 , d_in [15:0] $end
$var wire 1 ( rd_en $end
$var wire 1 ) rstn $end
$var wire 1 * wr_en $end
$var wire 1 ! full $end
$var wire 1 " empty $end
$var parameter 32 - DATA_WIDTH $end
$var parameter 32 . DEPTH $end
$var reg 4 / count [3:0] $end
$var reg 16 0 d_out [15:0] $end
$var reg 3 1 rd_ptr [2:0] $end
$var reg 3 2 wr_ptr [2:0] $end
$upscope $end
$upscope $end
$enddefinitions $end
$comment Show the parameter values. $end
$dumpall
b1000 .
b10000 -
b1000 %
b10000 $
$end
#0
$dumpvars
b0 2
b0 1
bx 0
b0 /
b0 ,
bx +
0*
0)
0(
b0 '
0&
bx #
1"
0!
$end
#5000
1&
#10000
0&
#15000
1&
#20000
0&
1)
#25000
1&
#30000
b10000 ,
b10000 '
1*
0&
b0 +
#35000
b1 2
0"
b1 /
1&
#40000
b1 +
0&
#45000
b10 /
b10 2
1&
#50000
0&
#55000
b11 2
b11 /
1&
#60000
b10 +
0&
#65000
b100 /
b100 2
1&
#70000
0&
#75000
b101 2
b101 /
1&
#80000
b11 +
0&
#85000
b110 /
b110 2
1&
#90000
0&
#95000
b111 2
b111 /
1&
#100000
b100 +
0&
#105000
1!
b1000 /
b0 2
1&
#110000
0&
#115000
1&
#120000
b101 +
0&
#125000
1&
#130000
0&
#135000
1&
#140000
b110 +
0&
#145000
1&
#150000
0&
#155000
1&
#160000
b111 +
0&
#165000
1&
#170000
0&
#175000
1&
#180000
b1000 +
0&
#185000
1&
#190000
0*
0&
#195000
1&
#200000
1*
0&
#205000
1&
#210000
b0 +
0*
0&
#215000
1&
#220000
1(
0&
#225000
b10000 #
0!
b111 /
b1 1
b10000 0
1&
#230000
b1 +
0&
#235000
b10 1
b110 /
1&
#240000
0&
#245000
b101 /
b11 1
1&
#250000
b10 +
0&
#255000
b100 1
b100 /
1&
#260000
0&
#265000
b11 /
b101 1
1&
#270000
b11 +
0&
#275000
b110 1
b10 /
1&
#280000
0&
#285000
b1 /
b111 1
1&
#290000
b100 +
0&
#295000
b0 1
1"
b0 /
1&
#300000
0&
#305000
1&
#310000
b101 +
0&
#315000
1&
#320000
0&
#325000
1&
#330000
b110 +
0&
#335000
1&
#340000
0&
#345000
1&
#350000
b111 +
0&
#355000
1&
#360000
0&
#365000
1&
#370000
b1000 +
0&
#375000
1&
#380000
0&
#385000
1&
#390000
0(
0&
